%YAML 1.1
%TAG !u! tag:unity3d.com,2011:
--- !u!1 &605141149506290325
GameObject:
  m_ObjectHideFlags: 0
  m_CorrespondingSourceObject: {fileID: 0}
  m_PrefabInstance: {fileID: 0}
  m_PrefabAsset: {fileID: 0}
  serializedVersion: 6
  m_Component:
  - component: {fileID: 7571362257867328641}
  m_Layer: 0
  m_Name: Star
  m_TagString: Untagged
  m_Icon: {fileID: 0}
  m_NavMeshLayer: 0
  m_StaticEditorFlags: 0
  m_IsActive: 1
--- !u!4 &7571362257867328641
Transform:
  m_ObjectHideFlags: 0
  m_CorrespondingSourceObject: {fileID: 0}
  m_PrefabInstance: {fileID: 0}
  m_PrefabAsset: {fileID: 0}
  m_GameObject: {fileID: 605141149506290325}
  serializedVersion: 2
  m_LocalRotation: {x: 0, y: 0, z: 0, w: 1}
  m_LocalPosition: {x: 4.721898, y: 1.9903649, z: -2.9281611}
  m_LocalScale: {x: 1, y: 1, z: 1}
  m_ConstrainProportionsScale: 0
  m_Children:
  - {fileID: 8404890021768046773}
  m_Father: {fileID: 0}
  m_LocalEulerAnglesHint: {x: 0, y: 0, z: 0}
--- !u!1001 &6505189876372080426
PrefabInstance:
  m_ObjectHideFlags: 0
  serializedVersion: 2
  m_Modification:
    serializedVersion: 3
    m_TransformParent: {fileID: 7571362257867328641}
    m_Modifications:
    - target: {fileID: 2713675953848317221, guid: d7a1dea6264fd5641b3fe3dc66e649d6, type: 3}
      propertyPath: m_Name
      value: Star2 Variant
      objectReference: {fileID: 0}
    - target: {fileID: 3378607142328446879, guid: d7a1dea6264fd5641b3fe3dc66e649d6, type: 3}
      propertyPath: m_LocalPosition.x
      value: 0
      objectReference: {fileID: 0}
    - target: {fileID: 3378607142328446879, guid: d7a1dea6264fd5641b3fe3dc66e649d6, type: 3}
      propertyPath: m_LocalPosition.y
      value: 0
      objectReference: {fileID: 0}
    - target: {fileID: 3378607142328446879, guid: d7a1dea6264fd5641b3fe3dc66e649d6, type: 3}
      propertyPath: m_LocalPosition.z
      value: 0
      objectReference: {fileID: 0}
    - target: {fileID: 3378607142328446879, guid: d7a1dea6264fd5641b3fe3dc66e649d6, type: 3}
      propertyPath: m_LocalRotation.w
      value: 1
      objectReference: {fileID: 0}
    - target: {fileID: 3378607142328446879, guid: d7a1dea6264fd5641b3fe3dc66e649d6, type: 3}
      propertyPath: m_LocalRotation.x
      value: 0
      objectReference: {fileID: 0}
    - target: {fileID: 3378607142328446879, guid: d7a1dea6264fd5641b3fe3dc66e649d6, type: 3}
      propertyPath: m_LocalRotation.y
      value: 0
      objectReference: {fileID: 0}
    - target: {fileID: 3378607142328446879, guid: d7a1dea6264fd5641b3fe3dc66e649d6, type: 3}
      propertyPath: m_LocalRotation.z
      value: 0
      objectReference: {fileID: 0}
    - target: {fileID: 3378607142328446879, guid: d7a1dea6264fd5641b3fe3dc66e649d6, type: 3}
      propertyPath: m_LocalEulerAnglesHint.x
      value: 0
      objectReference: {fileID: 0}
    - target: {fileID: 3378607142328446879, guid: d7a1dea6264fd5641b3fe3dc66e649d6, type: 3}
      propertyPath: m_LocalEulerAnglesHint.y
      value: 0
      objectReference: {fileID: 0}
    - target: {fileID: 3378607142328446879, guid: d7a1dea6264fd5641b3fe3dc66e649d6, type: 3}
      propertyPath: m_LocalEulerAnglesHint.z
      value: 0
      objectReference: {fileID: 0}
    m_RemovedComponents: []
    m_RemovedGameObjects: []
    m_AddedGameObjects: []
    m_AddedComponents: []
  m_SourcePrefab: {fileID: 100100000, guid: d7a1dea6264fd5641b3fe3dc66e649d6, type: 3}
--- !u!4 &8404890021768046773 stripped
Transform:
  m_CorrespondingSourceObject: {fileID: 3378607142328446879, guid: d7a1dea6264fd5641b3fe3dc66e649d6, type: 3}
  m_PrefabInstance: {fileID: 6505189876372080426}
  m_PrefabAsset: {fileID: 0}
